{
	"info": {
		"_postman_id": "3f6d89e7-a43a-42ff-bdb3-234bd73e182d",
		"name": "PT Barumi",
		"schema": "https://schema.getpostman.com/json/collection/v2.1.0/collection.json"
	},
	"item": [
		{
			"name": "192.168.43.18/testskill_barumi/public/api/barang/update/kbr008",
			"request": {
				"auth": {
					"type": "noauth"
				},
				"method": "PUT",
				"header": [],
				"body": {
					"mode": "formdata",
					"formdata": [
						{
							"key": "kode",
							"value": "kbr008",
							"type": "text",
							"disabled": true
						},
						{
							"key": "userid",
							"value": "usr1",
							"type": "text",
							"disabled": true
						},
						{
							"key": "nama",
							"value": "keyboarddd",
							"type": "text"
						},
						{
							"key": "minstok",
							"value": "100",
							"type": "text"
						},
						{
							"key": "stokava",
							"value": "500",
							"type": "text"
						}
					]
				},
				"url": {
					"raw": "192.168.43.18/testskill_barumi/public/api/barang/update/kbr008",
					"host": [
						"192",
						"168",
						"43",
						"18"
					],
					"path": [
						"testskill_barumi",
						"public",
						"api",
						"barang",
						"update",
						"kbr008"
					],
					"query": [
						{
							"key": "kode_barang",
							"value": "kbr003",
							"disabled": true
						},
						{
							"key": "userid",
							"value": "usr2",
							"disabled": true
						},
						{
							"key": "nama_barang",
							"value": "aaa",
							"disabled": true
						},
						{
							"key": "min_stok",
							"value": "111",
							"disabled": true
						},
						{
							"key": "stok_tersedia",
							"value": "222",
							"disabled": true
						}
					]
				}
			},
			"response": []
		},
		{
			"name": "localhost/testskill_barumi/public/api/login/",
			"request": {
				"method": "POST",
				"header": [],
				"body": {
					"mode": "formdata",
					"formdata": [
						{
							"key": "id",
							"value": "usr1",
							"type": "text"
						},
						{
							"key": "pass",
							"value": "asd",
							"type": "text"
						}
					]
				},
				"url": {
					"raw": "localhost/testskill_barumi/public/api/login/",
					"host": [
						"localhost"
					],
					"path": [
						"testskill_barumi",
						"public",
						"api",
						"login",
						""
					]
				}
			},
			"response": []
		}
	]
}